GIS Workflow: Classifying Raster and Vector Soil Data • tidysoiltexture
…
# Classify — bare column names, tidy-eval, geometry preserved
pedons_class <- classify_texture(pedons, sand = sand, silt = silt, clay = clay)

dplyr::select(pedons_class, pedon_id, sand, silt, clay,
              .texture_class, .texture_abbr)
#> Simple feature collection with 28 features and 6 fields
#> Geometry type: POINT
#> Dimension:     XY
#> Bounding box:  xmin: 688.112 ymin: 564.7616 xmax: 19440.82 ymax: 19114.22
#> Projected CRS: WGS 84 / UTM zone 32N
#> # A tibble: 28 × 7
#>    pedon_id  sand  silt  clay .texture_class  .texture_abbr
#>    <chr>    <dbl> <dbl> <dbl> <chr>           <chr>        
#>  1 P01       13.8  53.7  32.5 silty clay loam SiClLo       
#>  2 P03       34.2  35.6  30.2 clay loam       ClLo         
#>  3 P04       40.0  35.8  24.2 loam            Lo           
#>  4 P05       41.7  34.9  23.4 loam            Lo           
#>  5 P06       43.6  28.8  27.6 clay loam       ClLo         
#>  6 P07       28.3  45.0  26.7 loam            Lo           
#>  7 P08       29.1  60.1  10.8 silty loam      SiLo         
#>  8 P09       56.0  17.5  26.5 sandy clay loam SaClLo       
#>  9 P10       41.1  15.9  42.9 clay            Cl           
#> 10 P11       56.5  23.6  19.9 sandy loam      SaLo         
#> # ℹ 18 more rows
#> # ℹ 1 more variable: geometry <POINT [m]>
…
